firefox.settings.services.mozilla.com:HSTS	0	18132	1598203753537,1,0
services.addons.mozilla.org:HSTS	0	18132	1566667817233,1,0
shavar.services.mozilla.com:HSTS	0	18132	1598203400327,1,1
duckduckgo.com:HSTS	0	18132	1598204853958,1,0
blocklist.addons.mozilla.org:HSTS	0	18132	1566667959546,1,0
services.addons.thunderbird.net:HSTS	0	18132	1598203518799,1,0
blocklists.settings.services.mozilla.com:HSTS	0	18132	1598203660595,1,0
versioncheck.addons.mozilla.org:HSTS	0	18132	1566667819373,1,0
